%YAML 1.1
%TAG !u! tag:unity3d.com,2011:
--- !u!1001 &7206299761680929960
PrefabInstance:
  m_ObjectHideFlags: 0
  serializedVersion: 2
  m_Modification:
    serializedVersion: 2
    m_TransformParent: {fileID: 0}
    m_Modifications:
    - target: {fileID: -8679921383154817045, guid: 5ee66ba7fdfca3048b14a7cb7c912f4f, type: 3}
      propertyPath: m_RootOrder
      value: 0
      objectReference: {fileID: 0}
    - target: {fileID: -8679921383154817045, guid: 5ee66ba7fdfca3048b14a7cb7c912f4f, type: 3}
      propertyPath: m_LocalPosition.x
      value: 0
      objectReference: {fileID: 0}
    - target: {fileID: -8679921383154817045, guid: 5ee66ba7fdfca3048b14a7cb7c912f4f, type: 3}
      propertyPath: m_LocalPosition.y
      value: 0
      objectReference: {fileID: 0}
    - target: {fileID: -8679921383154817045, guid: 5ee66ba7fdfca3048b14a7cb7c912f4f, type: 3}
      propertyPath: m_LocalPosition.z
      value: 0
      objectReference: {fileID: 0}
    - target: {fileID: -8679921383154817045, guid: 5ee66ba7fdfca3048b14a7cb7c912f4f, type: 3}
      propertyPath: m_LocalRotation.w
      value: 1
      objectReference: {fileID: 0}
    - target: {fileID: -8679921383154817045, guid: 5ee66ba7fdfca3048b14a7cb7c912f4f, type: 3}
      propertyPath: m_LocalRotation.x
      value: 0
      objectReference: {fileID: 0}
    - target: {fileID: -8679921383154817045, guid: 5ee66ba7fdfca3048b14a7cb7c912f4f, type: 3}
      propertyPath: m_LocalRotation.y
      value: -0
      objectReference: {fileID: 0}
    - target: {fileID: -8679921383154817045, guid: 5ee66ba7fdfca3048b14a7cb7c912f4f, type: 3}
      propertyPath: m_LocalRotation.z
      value: -0
      objectReference: {fileID: 0}
    - target: {fileID: -8679921383154817045, guid: 5ee66ba7fdfca3048b14a7cb7c912f4f, type: 3}
      propertyPath: m_LocalEulerAnglesHint.x
      value: 0
      objectReference: {fileID: 0}
    - target: {fileID: -8679921383154817045, guid: 5ee66ba7fdfca3048b14a7cb7c912f4f, type: 3}
      propertyPath: m_LocalEulerAnglesHint.y
      value: 0
      objectReference: {fileID: 0}
    - target: {fileID: -8679921383154817045, guid: 5ee66ba7fdfca3048b14a7cb7c912f4f, type: 3}
      propertyPath: m_LocalEulerAnglesHint.z
      value: 0
      objectReference: {fileID: 0}
    - target: {fileID: -7511558181221131132, guid: 5ee66ba7fdfca3048b14a7cb7c912f4f, type: 3}
      propertyPath: m_Materials.Array.size
      value: 1
      objectReference: {fileID: 0}
    - target: {fileID: -7511558181221131132, guid: 5ee66ba7fdfca3048b14a7cb7c912f4f, type: 3}
      propertyPath: m_Materials.Array.data[0]
      value: 
      objectReference: {fileID: 2100000, guid: 6363bb5ce3135c4408e0192f5645f7a8, type: 2}
    - target: {fileID: 919132149155446097, guid: 5ee66ba7fdfca3048b14a7cb7c912f4f, type: 3}
      propertyPath: m_Name
      value: Enemy Second
      objectReference: {fileID: 0}
    - target: {fileID: 919132149155446097, guid: 5ee66ba7fdfca3048b14a7cb7c912f4f, type: 3}
      propertyPath: m_Layer
      value: 11
      objectReference: {fileID: 0}
    - target: {fileID: 919132149155446097, guid: 5ee66ba7fdfca3048b14a7cb7c912f4f, type: 3}
      propertyPath: m_TagString
      value: Enemy
      objectReference: {fileID: 0}
    m_RemovedComponents: []
    m_AddedGameObjects: []
  m_SourcePrefab: {fileID: 100100000, guid: 5ee66ba7fdfca3048b14a7cb7c912f4f, type: 3}
--- !u!1 &7548176608775137785 stripped
GameObject:
  m_CorrespondingSourceObject: {fileID: 919132149155446097, guid: 5ee66ba7fdfca3048b14a7cb7c912f4f, type: 3}
  m_PrefabInstance: {fileID: 7206299761680929960}
  m_PrefabAsset: {fileID: 0}
--- !u!65 &8028500173016380037
BoxCollider:
  m_ObjectHideFlags: 0
  m_CorrespondingSourceObject: {fileID: 0}
  m_PrefabInstance: {fileID: 0}
  m_PrefabAsset: {fileID: 0}
  m_GameObject: {fileID: 7548176608775137785}
  m_Material: {fileID: 0}
  m_IsTrigger: 1
  m_Enabled: 1
  serializedVersion: 2
  m_Size: {x: 2, y: 2, z: 2}
  m_Center: {x: 0, y: 0, z: 0}
--- !u!114 &-2060496481408065641
MonoBehaviour:
  m_ObjectHideFlags: 0
  m_CorrespondingSourceObject: {fileID: 0}
  m_PrefabInstance: {fileID: 0}
  m_PrefabAsset: {fileID: 0}
  m_GameObject: {fileID: 7548176608775137785}
  m_Enabled: 1
  m_EditorHideFlags: 0
  m_Script: {fileID: 11500000, guid: 60e33c952cbd3e34a8de63f96808270a, type: 3}
  m_Name: 
  m_EditorClassIdentifier: 
  _value: 9
  _unitName: Enemy 2
  _unitDescription: Another type of enemy cube attacking base.
  _crashDamage: 10
  _targetLayerMask:
    serializedVersion: 2
    m_Bits: 4096
--- !u!114 &1641033835310636646
MonoBehaviour:
  m_ObjectHideFlags: 0
  m_CorrespondingSourceObject: {fileID: 0}
  m_PrefabInstance: {fileID: 0}
  m_PrefabAsset: {fileID: 0}
  m_GameObject: {fileID: 7548176608775137785}
  m_Enabled: 1
  m_EditorHideFlags: 0
  m_Script: {fileID: 11500000, guid: 291f4c65b897a5c478987648bdbcad78, type: 3}
  m_Name: 
  m_EditorClassIdentifier: 
  _networkShape: 040000000f000000140000001e000000140000000f00000001000000
  _speed: 20
  _maxTurningSpeed: 180
--- !u!114 &4120430933263382372
MonoBehaviour:
  m_ObjectHideFlags: 0
  m_CorrespondingSourceObject: {fileID: 0}
  m_PrefabInstance: {fileID: 0}
  m_PrefabAsset: {fileID: 0}
  m_GameObject: {fileID: 7548176608775137785}
  m_Enabled: 1
  m_EditorHideFlags: 0
  m_Script: {fileID: 11500000, guid: 74fa762353abd364da9117b4162d8375, type: 3}
  m_Name: 
  m_EditorClassIdentifier: 
  Died:
    m_PersistentCalls:
      m_Calls: []
  _amount: 100
  _healthDecayRate: 0
  _canTakeDamage: 1
  _healthbarGameObject: {fileID: 0}
  _alwaysShowHealthbar: 0
  _deathSound:
    _audioClip: {fileID: 8300000, guid: 83e5b99dc5eb78f42872f77d12736419, type: 3}
    _volume: 0.569
  _spawnAfterDeath: {fileID: 0}
