%YAML 1.1
%TAG !u! tag:unity3d.com,2011:
--- !u!1001 &4421494704400541635
PrefabInstance:
  m_ObjectHideFlags: 0
  serializedVersion: 2
  m_Modification:
    serializedVersion: 2
    m_TransformParent: {fileID: 0}
    m_Modifications:
    - target: {fileID: -8679921383154817045, guid: f7a7e8902ec7b964eb871e52f8942561, type: 3}
      propertyPath: m_RootOrder
      value: 0
      objectReference: {fileID: 0}
    - target: {fileID: -8679921383154817045, guid: f7a7e8902ec7b964eb871e52f8942561, type: 3}
      propertyPath: m_LocalPosition.x
      value: 0
      objectReference: {fileID: 0}
    - target: {fileID: -8679921383154817045, guid: f7a7e8902ec7b964eb871e52f8942561, type: 3}
      propertyPath: m_LocalPosition.y
      value: 0
      objectReference: {fileID: 0}
    - target: {fileID: -8679921383154817045, guid: f7a7e8902ec7b964eb871e52f8942561, type: 3}
      propertyPath: m_LocalPosition.z
      value: 0
      objectReference: {fileID: 0}
    - target: {fileID: -8679921383154817045, guid: f7a7e8902ec7b964eb871e52f8942561, type: 3}
      propertyPath: m_LocalRotation.w
      value: 1
      objectReference: {fileID: 0}
    - target: {fileID: -8679921383154817045, guid: f7a7e8902ec7b964eb871e52f8942561, type: 3}
      propertyPath: m_LocalRotation.x
      value: 0
      objectReference: {fileID: 0}
    - target: {fileID: -8679921383154817045, guid: f7a7e8902ec7b964eb871e52f8942561, type: 3}
      propertyPath: m_LocalRotation.y
      value: -0
      objectReference: {fileID: 0}
    - target: {fileID: -8679921383154817045, guid: f7a7e8902ec7b964eb871e52f8942561, type: 3}
      propertyPath: m_LocalRotation.z
      value: -0
      objectReference: {fileID: 0}
    - target: {fileID: -8679921383154817045, guid: f7a7e8902ec7b964eb871e52f8942561, type: 3}
      propertyPath: m_LocalEulerAnglesHint.x
      value: 0
      objectReference: {fileID: 0}
    - target: {fileID: -8679921383154817045, guid: f7a7e8902ec7b964eb871e52f8942561, type: 3}
      propertyPath: m_LocalEulerAnglesHint.y
      value: 0
      objectReference: {fileID: 0}
    - target: {fileID: -8679921383154817045, guid: f7a7e8902ec7b964eb871e52f8942561, type: 3}
      propertyPath: m_LocalEulerAnglesHint.z
      value: 0
      objectReference: {fileID: 0}
    - target: {fileID: -7511558181221131132, guid: f7a7e8902ec7b964eb871e52f8942561, type: 3}
      propertyPath: m_Materials.Array.data[0]
      value: 
      objectReference: {fileID: 2100000, guid: e1d669f36b738fe4c809a88ba0345553, type: 2}
    - target: {fileID: 919132149155446097, guid: f7a7e8902ec7b964eb871e52f8942561, type: 3}
      propertyPath: m_Name
      value: CubicTower
      objectReference: {fileID: 0}
    - target: {fileID: 919132149155446097, guid: f7a7e8902ec7b964eb871e52f8942561, type: 3}
      propertyPath: m_Layer
      value: 13
      objectReference: {fileID: 0}
    - target: {fileID: 919132149155446097, guid: f7a7e8902ec7b964eb871e52f8942561, type: 3}
      propertyPath: m_TagString
      value: Tower
      objectReference: {fileID: 0}
    m_RemovedComponents: []
    m_AddedGameObjects: []
  m_SourcePrefab: {fileID: 100100000, guid: f7a7e8902ec7b964eb871e52f8942561, type: 3}
--- !u!1 &3575057453846207122 stripped
GameObject:
  m_CorrespondingSourceObject: {fileID: 919132149155446097, guid: f7a7e8902ec7b964eb871e52f8942561, type: 3}
  m_PrefabInstance: {fileID: 4421494704400541635}
  m_PrefabAsset: {fileID: 0}
--- !u!136 &1532808225740758224
CapsuleCollider:
  m_ObjectHideFlags: 0
  m_CorrespondingSourceObject: {fileID: 0}
  m_PrefabInstance: {fileID: 0}
  m_PrefabAsset: {fileID: 0}
  m_GameObject: {fileID: 3575057453846207122}
  m_Material: {fileID: 0}
  m_IsTrigger: 0
  m_Enabled: 1
  m_Radius: 1.4140192
  m_Height: 6.15
  m_Direction: 1
  m_Center: {x: 0, y: 2.7916493, z: 0}
--- !u!114 &-4992836583081377446
MonoBehaviour:
  m_ObjectHideFlags: 0
  m_CorrespondingSourceObject: {fileID: 0}
  m_PrefabInstance: {fileID: 0}
  m_PrefabAsset: {fileID: 0}
  m_GameObject: {fileID: 3575057453846207122}
  m_Enabled: 1
  m_EditorHideFlags: 0
  m_Script: {fileID: 11500000, guid: e38883990a094c9439061218008ec761, type: 3}
  m_Name: 
  m_EditorClassIdentifier: 
  _value: 250
  _unitName: Cubic Tower
  _unitDescription: Rapidly attacking tower.
  _upgrade: {fileID: 3575057453846207122, guid: 22f5bbeb892d1f24194029cffb801cbf, type: 3}
--- !u!114 &-709290956009665747
MonoBehaviour:
  m_ObjectHideFlags: 0
  m_CorrespondingSourceObject: {fileID: 0}
  m_PrefabInstance: {fileID: 0}
  m_PrefabAsset: {fileID: 0}
  m_GameObject: {fileID: 3575057453846207122}
  m_Enabled: 1
  m_EditorHideFlags: 0
  m_Script: {fileID: 11500000, guid: 2d24842a36530394b9af6ed94ee1a49f, type: 3}
  m_Name: 
  m_EditorClassIdentifier: 
  Attacked:
    m_PersistentCalls:
      m_Calls: []
  _attackLayer:
    serializedVersion: 2
    m_Bits: 2048
  _range: 15
  _attackSound:
    _audioClip: {fileID: 8300000, guid: 968389582a9207147843490dde9cc42d, type: 3}
    _volume: 1
  _damage: 100
  _laserPrefab: {fileID: 6857620003879479379, guid: 86e9c096ce831404c9fcfc4d92ddc21d, type: 3}
  _attackDelay: 0.3
  _multishot: 3
  _laserOriginHeight: 6
--- !u!114 &7510867875384690207
MonoBehaviour:
  m_ObjectHideFlags: 0
  m_CorrespondingSourceObject: {fileID: 0}
  m_PrefabInstance: {fileID: 0}
  m_PrefabAsset: {fileID: 0}
  m_GameObject: {fileID: 3575057453846207122}
  m_Enabled: 1
  m_EditorHideFlags: 0
  m_Script: {fileID: 11500000, guid: 74fa762353abd364da9117b4162d8375, type: 3}
  m_Name: 
  m_EditorClassIdentifier: 
  Died:
    m_PersistentCalls:
      m_Calls: []
  _amount: 100
  _healthDecayRate: 0
  _canTakeDamage: 0
  _healthbarGameObject: {fileID: 0}
  _alwaysShowHealthbar: 0
  _deathSound:
    _audioClip: {fileID: 0}
    _volume: 0
  _spawnAfterDeath: {fileID: 0}
